{"current_page":1,"data":[{"id":2057,"sorting_order":0,"user":{"id":113729,"title":"Dr","first_name":"Isabel","last_name":"HERMENEGILDO","fullname":"Dr HERMENEGILDO Isabel","slug":"dr-isabel-hermengildo","picture_url":"https:\/\/uploads.imcas.com\/users\/113729\/picture\/61af6ae64f7ee.jpg","phone":"+351 216 087 388 \/ +351 217 228 110","specialty_category":"physician","country":{"id":188,"translations":[{"name":"Portugal","locale":"en"},{"name":"Portugal","locale":"fr"},{"name":"\u8461\u8404\u7259","locale":"zh"},{"name":"\u041f\u043e\u0440\u0442\u0443\u0433\u0430\u043b\u0438\u044f","locale":"ru"},{"name":"Portugal","locale":"es"},{"name":"Portugal","locale":"pt"}]},"specialty":{"id":23,"doctor":true,"translations":[{"name":"MD","locale":"en"},{"name":"M\u00e9decin","locale":"fr"},{"name":"\u533b\u5e08","locale":"zh"},{"name":"\u0414\u043e\u043a\u0442\u043e\u0440 \u043c\u0435\u0434\u0438\u0446\u0438\u043d\u044b","locale":"ru"},{"name":"M\u00e9dico","locale":"es"},{"name":"M\u00e9dico","locale":"pt"}]},"company":false,"diploma_status":"free_verified","specialty_verified":1,"user_specialty_id":23,"badges":[{"id":15,"group":"CongressParticipation","category":{"id":1,"code":"imcas","slug":"imcas-world-congress","hashtag":"imcas","domain_of_interest_aesthetics":1,"domain_of_interest_ophthalmology":0,"color_background":"","color":"#7261a5","sponsor_email":"industry@imcas.com","scientific_email":"scientific@imcas.com","attend_cover_video":1,"attend_cover_video_media_id":21941,"is_class":0,"is_services_only":0,"notes_recap_mail_addresses":"scientific@imcas.com,c.minary@imcas.com,l.wang@imcas.com","brand_id":1},"image":"fa-solid fa-globe-europe","rank":4,"threshold":3,"color":"#8F6DB2","title":"IMCAS Paris","description":"Attend IMCAS World Congress three times","isUltimate":false,"isOwned":false},{"id":6,"group":"VideosWatched","category":null,"image":"fa-solid fa-video","rank":3,"threshold":100,"color":"#F6C000","title":"100 videos","description":"Watch 100 videos.","isUltimate":false,"isOwned":false},{"id":74,"group":"YearlySubscriptions","category":null,"image":"fa-solid fa-user-graduate","rank":1,"threshold":1,"color":"#D1600D","title":"1 subscriptions","description":"Subscribe 1 year to the Academy","isUltimate":false,"isOwned":false}]},"translations":[{"content":"Until now, it is an amazing experience","locale":"en"},{"content":"Until now, it is an amazing experience","locale":"en"}]},{"id":1299,"sorting_order":0,"user":{"id":282823,"title":"Dr","first_name":"Ginni","last_name":"CHHABRIA","fullname":"Dr CHHABRIA Ginni","slug":"dr-dr-ginni-chhabria","picture_url":"https:\/\/uploads.imcas.com\/users\/pictures\/000\/282\/823\/xlarge\/33674995325790f32c6f15ed458162851a37f424db3daba91f7bfdf2bc093009.jpg","phone":"+91 731 400 9191 \/ +91 88786 08000","specialty_category":"physician","country":{"id":105,"translations":[{"name":"India","locale":"en"},{"name":"Inde","locale":"fr"},{"name":"\u5370\u5ea6","locale":"zh"},{"name":"\u0418\u043d\u0434\u0438\u044f","locale":"ru"},{"name":"India","locale":"es"},{"name":"\u00cdndia","locale":"pt"}]},"specialty":{"id":11,"doctor":true,"translations":[{"name":"Dermatologist","locale":"en"},{"name":"Dermatologue","locale":"fr"},{"name":"\u76ae\u80a4\u79d1\u533b\u5e08","locale":"zh"},{"name":"\u0414\u0435\u0440\u043c\u0430\u0442\u043e\u043b\u043e\u0433","locale":"ru"},{"name":"Dermat\u00f3logo","locale":"es"},{"name":"Dermatologista","locale":"pt"}]},"company":false,"diploma_status":"free_not_verified","specialty_verified":0,"user_specialty_id":11,"badges":[{"id":14,"group":"CongressParticipation","category":{"id":1,"code":"imcas","slug":"imcas-world-congress","hashtag":"imcas","domain_of_interest_aesthetics":1,"domain_of_interest_ophthalmology":0,"color_background":"","color":"#7261a5","sponsor_email":"industry@imcas.com","scientific_email":"scientific@imcas.com","attend_cover_video":1,"attend_cover_video_media_id":21941,"is_class":0,"is_services_only":0,"notes_recap_mail_addresses":"scientific@imcas.com,c.minary@imcas.com,l.wang@imcas.com","brand_id":1},"image":"fa-solid fa-globe-europe","rank":3,"threshold":1,"color":"#F6C000","title":"IMCAS Paris","description":"Attend IMCAS World Congress once","isUltimate":false,"isOwned":false},{"id":2,"group":"VideosWatched","category":null,"image":"fa-solid fa-video","rank":1,"threshold":10,"color":"#D1600D","title":"10 videos","description":"Watch 10 videos.","isUltimate":false,"isOwned":false},{"id":128,"group":"VideosWatched","category":{"id":40,"color_code":"#ffa035","room_background_text1":null,"room_background_text2":null,"room_background_text3":null},"image":null,"rank":1,"threshold":5,"color":"#D1600D","title":"5 videos","description":"Watch 5 videos on injectables","isUltimate":false,"isOwned":false},{"id":39,"group":"WatchTime","category":null,"image":"fa-solid fa-stopwatch","rank":1,"threshold":100,"color":"#D1600D","title":"100 min watched","description":"Watch videos for a total of 100 minutes.","isUltimate":false,"isOwned":false},{"id":49,"group":"VideosPublished","category":null,"image":"fa-solid fa-podium","rank":1,"threshold":1,"color":"#D1600D","title":"1 video","description":"Get 1 video published","isUltimate":false,"isOwned":false},{"id":74,"group":"YearlySubscriptions","category":null,"image":"fa-solid fa-user-graduate","rank":1,"threshold":1,"color":"#D1600D","title":"1 subscriptions","description":"Subscribe 1 year to the Academy","isUltimate":false,"isOwned":false}]},"translations":[{"content":"I attended IMCAS for the first time . The conference was just superb , the content and the lectures were very well planned and the whole congress was systematically organized. Had great learning and take homes from the congress.","locale":"en"},{"content":"\u042f \u0432\u043f\u0435\u0440\u0432\u044b\u0435 \u043f\u0440\u0438\u0441\u0443\u0442\u0441\u0442\u0432\u043e\u0432\u0430\u043b \u043d\u0430 IMCAS. \u041a\u043e\u043d\u0444\u0435\u0440\u0435\u043d\u0446\u0438\u044f \u0431\u044b\u043b\u0430 \u043f\u0440\u043e\u0441\u0442\u043e \u043f\u0440\u0435\u0432\u043e\u0441\u0445\u043e\u0434\u043d\u043e\u0439, \u0441\u043e\u0434\u0435\u0440\u0436\u0430\u043d\u0438\u0435 \u0438 \u043b\u0435\u043a\u0446\u0438\u0438 \u0431\u044b\u043b\u0438 \u043e\u0447\u0435\u043d\u044c \u0445\u043e\u0440\u043e\u0448\u043e \u0441\u043f\u043b\u0430\u043d\u0438\u0440\u043e\u0432\u0430\u043d\u044b, \u0438 \u0432\u0435\u0441\u044c \u043a\u043e\u043d\u0433\u0440\u0435\u0441\u0441 \u0431\u044b\u043b \u0441\u0438\u0441\u0442\u0435\u043c\u0430\u0442\u0438\u0447\u0435\u0441\u043a\u0438 \u043e\u0440\u0433\u0430\u043d\u0438\u0437\u043e\u0432\u0430\u043d. \u0411\u044b\u043b\u043e \u0437\u0434\u043e\u0440\u043e\u0432\u043e \u0443\u0447\u0438\u0442\u044c\u0441\u044f.","locale":"ru"}]},{"id":2326,"sorting_order":0,"user":{"id":358717,"title":"Dr","first_name":"Maria Fernanda","last_name":"GAITAN RUEDA","fullname":"Dr GAITAN RUEDA Maria Fernanda","slug":"dr-maria-fernanda-gaitan-rueda","picture_url":"https:\/\/uploads.imcas.com\/users\/358717\/picture\/bsZlsvPCvuMnPQrzkwjOVFhxubw3GGvGSWeW8hIx.jpg","phone":"+57 629 57 89","specialty_category":"physician","country":{"id":50,"translations":[{"name":"Col\u00f4mbia","locale":"pt"},{"name":"Colombie","locale":"fr"},{"name":"\u54e5\u4f26\u6bd4\u4e9a","locale":"zh"},{"name":"\u041a\u043e\u043b\u0443\u043c\u0431\u0438\u044f","locale":"ru"},{"name":"Colombia","locale":"es"},{"name":"Colombia","locale":"en"}]},"specialty":{"id":23,"doctor":true,"translations":[{"name":"MD","locale":"en"},{"name":"M\u00e9decin","locale":"fr"},{"name":"\u533b\u5e08","locale":"zh"},{"name":"\u0414\u043e\u043a\u0442\u043e\u0440 \u043c\u0435\u0434\u0438\u0446\u0438\u043d\u044b","locale":"ru"},{"name":"M\u00e9dico","locale":"es"},{"name":"M\u00e9dico","locale":"pt"}]},"company":false,"diploma_status":"free_not_verified","specialty_verified":0,"user_specialty_id":23,"badges":[{"id":26,"group":"CongressParticipation","category":{"id":6,"code":"americas","slug":"imcas-americas","hashtag":"imcasamericas","domain_of_interest_aesthetics":1,"domain_of_interest_ophthalmology":0,"color_background":null,"color":"#f0ab3d","sponsor_email":"industry-americas@imcas.com","scientific_email":"scientific-americas@imcas.com","attend_cover_video":1,"attend_cover_video_media_id":21941,"is_class":0,"is_services_only":0,"notes_recap_mail_addresses":"scientific-americas@imcas.com","brand_id":1},"image":"fa-solid fa-globe-americas","rank":3,"threshold":1,"color":"#F6C000","title":"IMCAS Americas","description":"Attend IMCAS Americas once","isUltimate":false,"isOwned":false},{"id":2,"group":"VideosWatched","category":null,"image":"fa-solid fa-video","rank":1,"threshold":10,"color":"#D1600D","title":"10 videos","description":"Watch 10 videos.","isUltimate":false,"isOwned":false},{"id":54,"group":"WebinarParticipations","category":null,"image":"fa-solid fa-headphones","rank":1,"threshold":1,"color":"#D1600D","title":"1 webinar","description":"Attend 1 webinar","isUltimate":false,"isOwned":false}]},"translations":[{"content":"It is a magnificent congress, I appreciate the interest of its organizers to ensure better quality each time and to be at the forefront of new technologies in aesthetics. It is always a pleasure to attend IMCAS!","locale":"en"},{"content":"Es un magn\u00edfico congreso, agradezco el inter\u00e9s de sus organizadores por asegurar una mejor calidad cada vez y estar a la vanguardia de nuevas tecnolog\u00edas en la est\u00e9tica. Siempre es un placer asistir a IMCAS!","locale":"es"}]},{"id":2327,"sorting_order":0,"user":{"id":367733,"title":"Dr","first_name":"Eduardo","last_name":"PERTUZ","fullname":"Dr PERTUZ Eduardo","slug":"dr-eduardo-pertuz","picture_url":"https:\/\/uploads.imcas.com\/users\/367733\/picture\/62d81f4acf4f9.jpg","phone":"+573126861882","specialty_category":"physician","country":{"id":50,"translations":[{"name":"Col\u00f4mbia","locale":"pt"},{"name":"Colombie","locale":"fr"},{"name":"\u54e5\u4f26\u6bd4\u4e9a","locale":"zh"},{"name":"\u041a\u043e\u043b\u0443\u043c\u0431\u0438\u044f","locale":"ru"},{"name":"Colombia","locale":"es"},{"name":"Colombia","locale":"en"}]},"specialty":{"id":23,"doctor":true,"translations":[{"name":"MD","locale":"en"},{"name":"M\u00e9decin","locale":"fr"},{"name":"\u533b\u5e08","locale":"zh"},{"name":"\u0414\u043e\u043a\u0442\u043e\u0440 \u043c\u0435\u0434\u0438\u0446\u0438\u043d\u044b","locale":"ru"},{"name":"M\u00e9dico","locale":"es"},{"name":"M\u00e9dico","locale":"pt"}]},"company":false,"diploma_status":"free_not_verified","specialty_verified":0,"user_specialty_id":23,"badges":[{"id":26,"group":"CongressParticipation","category":{"id":6,"code":"americas","slug":"imcas-americas","hashtag":"imcasamericas","domain_of_interest_aesthetics":1,"domain_of_interest_ophthalmology":0,"color_background":null,"color":"#f0ab3d","sponsor_email":"industry-americas@imcas.com","scientific_email":"scientific-americas@imcas.com","attend_cover_video":1,"attend_cover_video_media_id":21941,"is_class":0,"is_services_only":0,"notes_recap_mail_addresses":"scientific-americas@imcas.com","brand_id":1},"image":"fa-solid fa-globe-americas","rank":3,"threshold":1,"color":"#F6C000","title":"IMCAS Americas","description":"Attend IMCAS Americas once","isUltimate":false,"isOwned":false},{"id":74,"group":"YearlySubscriptions","category":null,"image":"fa-solid fa-user-graduate","rank":1,"threshold":1,"color":"#D1600D","title":"1 subscriptions","description":"Subscribe 1 year to the Academy","isUltimate":false,"isOwned":false}]},"translations":[{"content":"I loved it! They think of everything. The organization and the speakers were all excellent. It is also an opportunity to meet friends and strengthen academic ties. Thank you!","locale":"en"},{"content":"Me encanto, piensan en todo, la organizaci\u00f3n y los ponentes, excelentes todos. Adem\u00e1s, es la oportunidad para encontrarse con amigos y estrechar lazos acad\u00e9micos. Gracias","locale":"es"}]},{"id":2328,"sorting_order":0,"user":{"id":319807,"title":"Dr","first_name":"Carolina","last_name":"ORTIZ ARIAS","fullname":"Dr ORTIZ ARIAS Carolina","slug":"dr-carolina-ortiz-arias","picture_url":"https:\/\/assets.imcas.com\/users\/default\/woman_doctor.png","phone":"+57 6 746 8487","specialty_category":"physician","country":null,"specialty":{"id":23,"doctor":true,"translations":[{"name":"MD","locale":"en"},{"name":"M\u00e9decin","locale":"fr"},{"name":"\u533b\u5e08","locale":"zh"},{"name":"\u0414\u043e\u043a\u0442\u043e\u0440 \u043c\u0435\u0434\u0438\u0446\u0438\u043d\u044b","locale":"ru"},{"name":"M\u00e9dico","locale":"es"},{"name":"M\u00e9dico","locale":"pt"}]},"company":false,"diploma_status":"free_not_verified","specialty_verified":0,"user_specialty_id":23,"badges":[{"id":26,"group":"CongressParticipation","category":{"id":6,"code":"americas","slug":"imcas-americas","hashtag":"imcasamericas","domain_of_interest_aesthetics":1,"domain_of_interest_ophthalmology":0,"color_background":null,"color":"#f0ab3d","sponsor_email":"industry-americas@imcas.com","scientific_email":"scientific-americas@imcas.com","attend_cover_video":1,"attend_cover_video_media_id":21941,"is_class":0,"is_services_only":0,"notes_recap_mail_addresses":"scientific-americas@imcas.com","brand_id":1},"image":"fa-solid fa-globe-americas","rank":3,"threshold":1,"color":"#F6C000","title":"IMCAS Americas","description":"Attend IMCAS Americas once","isUltimate":false,"isOwned":false}]},"translations":[{"content":"Excellent congress with a high level of education. I will continue to attend without a doubt !!!!","locale":"en"},{"content":"Excelente congreso, un nivel alto en educaci\u00f3n, seguir\u00e9 asistiendo sin lugar a dudas !!!","locale":"es"}]},{"id":2329,"sorting_order":0,"user":{"id":533317,"title":"Dr","first_name":"Astrid Karolina","last_name":"ROMERO ARIAS","fullname":"Dr ROMERO ARIAS Astrid Karolina","slug":"dr-astrid-karolina-romero-arias","picture_url":"https:\/\/assets.imcas.com\/users\/default\/user.png","phone":"","specialty_category":"physician","country":null,"specialty":{"id":23,"doctor":true,"translations":[{"name":"MD","locale":"en"},{"name":"M\u00e9decin","locale":"fr"},{"name":"\u533b\u5e08","locale":"zh"},{"name":"\u0414\u043e\u043a\u0442\u043e\u0440 \u043c\u0435\u0434\u0438\u0446\u0438\u043d\u044b","locale":"ru"},{"name":"M\u00e9dico","locale":"es"},{"name":"M\u00e9dico","locale":"pt"}]},"company":false,"diploma_status":"free_not_verified","specialty_verified":0,"user_specialty_id":23,"badges":[]},"translations":[{"content":"It was my first time attending an IMCAS congress. I liked the practical and theoretical dynamics as well as the diversity of countries. Excellent work!","locale":"en"},{"content":"Fue mi primera vez que asisto a un congreso imcas, me gusto la din\u00e1mica de los pr\u00e1cticos y te\u00f3ricos, la diversidad de pa\u00edses, excelente trabajo. ","locale":"es"}]},{"id":2330,"sorting_order":0,"user":{"id":527913,"title":"Dr","first_name":"Leydi","last_name":"MANTILLA VILLABONA","fullname":"Dr MANTILLA VILLABONA Leydi","slug":"dr-leydi-mantilla-villabona","picture_url":"https:\/\/assets.imcas.com\/users\/default\/woman_doctor.png","phone":"+57 3124192824","specialty_category":"physician","country":{"id":50,"translations":[{"name":"Col\u00f4mbia","locale":"pt"},{"name":"Colombie","locale":"fr"},{"name":"\u54e5\u4f26\u6bd4\u4e9a","locale":"zh"},{"name":"\u041a\u043e\u043b\u0443\u043c\u0431\u0438\u044f","locale":"ru"},{"name":"Colombia","locale":"es"},{"name":"Colombia","locale":"en"}]},"specialty":{"id":11,"doctor":true,"translations":[{"name":"Dermatologist","locale":"en"},{"name":"Dermatologue","locale":"fr"},{"name":"\u76ae\u80a4\u79d1\u533b\u5e08","locale":"zh"},{"name":"\u0414\u0435\u0440\u043c\u0430\u0442\u043e\u043b\u043e\u0433","locale":"ru"},{"name":"Dermat\u00f3logo","locale":"es"},{"name":"Dermatologista","locale":"pt"}]},"company":false,"diploma_status":"free_not_verified","specialty_verified":0,"user_specialty_id":11,"badges":[]},"translations":[{"content":"Excellent congress! Very well-organized with excellent world-class speakers.","locale":"en"},{"content":"Excelente congreso muy organizado y con excelentes oradores de talla mundial","locale":"es"}]},{"id":2331,"sorting_order":0,"user":{"id":299056,"title":"Dr","first_name":"Claudia Esperanza","last_name":"RESTREPO RAMIREZ","fullname":"Dr RESTREPO RAMIREZ Claudia Esperanza","slug":"dr-claudia-esperanza-restrepo-ramirez","picture_url":"https:\/\/assets.imcas.com\/users\/default\/woman_doctor.png","phone":"+57 1  215 3666 \/ +57 1 214 6814","specialty_category":"physician","country":{"id":50,"translations":[{"name":"Col\u00f4mbia","locale":"pt"},{"name":"Colombie","locale":"fr"},{"name":"\u54e5\u4f26\u6bd4\u4e9a","locale":"zh"},{"name":"\u041a\u043e\u043b\u0443\u043c\u0431\u0438\u044f","locale":"ru"},{"name":"Colombia","locale":"es"},{"name":"Colombia","locale":"en"}]},"specialty":{"id":11,"doctor":true,"translations":[{"name":"Dermatologist","locale":"en"},{"name":"Dermatologue","locale":"fr"},{"name":"\u76ae\u80a4\u79d1\u533b\u5e08","locale":"zh"},{"name":"\u0414\u0435\u0440\u043c\u0430\u0442\u043e\u043b\u043e\u0433","locale":"ru"},{"name":"Dermat\u00f3logo","locale":"es"},{"name":"Dermatologista","locale":"pt"}]},"company":false,"diploma_status":"free_verified","specialty_verified":1,"user_specialty_id":11,"badges":[{"id":14,"group":"CongressParticipation","category":{"id":1,"code":"imcas","slug":"imcas-world-congress","hashtag":"imcas","domain_of_interest_aesthetics":1,"domain_of_interest_ophthalmology":0,"color_background":"","color":"#7261a5","sponsor_email":"industry@imcas.com","scientific_email":"scientific@imcas.com","attend_cover_video":1,"attend_cover_video_media_id":21941,"is_class":0,"is_services_only":0,"notes_recap_mail_addresses":"scientific@imcas.com,c.minary@imcas.com,l.wang@imcas.com","brand_id":1},"image":"fa-solid fa-globe-europe","rank":3,"threshold":1,"color":"#F6C000","title":"IMCAS Paris","description":"Attend IMCAS World Congress once","isUltimate":false,"isOwned":false},{"id":26,"group":"CongressParticipation","category":{"id":6,"code":"americas","slug":"imcas-americas","hashtag":"imcasamericas","domain_of_interest_aesthetics":1,"domain_of_interest_ophthalmology":0,"color_background":null,"color":"#f0ab3d","sponsor_email":"industry-americas@imcas.com","scientific_email":"scientific-americas@imcas.com","attend_cover_video":1,"attend_cover_video_media_id":21941,"is_class":0,"is_services_only":0,"notes_recap_mail_addresses":"scientific-americas@imcas.com","brand_id":1},"image":"fa-solid fa-globe-americas","rank":3,"threshold":1,"color":"#F6C000","title":"IMCAS Americas","description":"Attend IMCAS Americas once","isUltimate":false,"isOwned":false}]},"translations":[{"content":"The scientific sessions were of high academic level and included first-class speakers. I was very impressed with the quality of this congress.","locale":"en"},{"content":"Las conferencias estuvieron en muy buen nivel academico , los  conferencistas 1a . Quede muy contecta del nivel de este congreso.\rmil gracias","locale":"es"},{"content":"As sess\u00f5es cient\u00edficas foram de alto n\u00edvel acad\u00eamico e inclu\u00edram palestrantes de primeira classe. Fiquei muito impressionada com a qualidade deste congresso.","locale":"pt"}]},{"id":2332,"sorting_order":0,"user":{"id":468689,"title":"Dr","first_name":"Alejandra","last_name":"DUQUE HOYOS","fullname":"Dr DUQUE HOYOS Alejandra","slug":"dr-alejandra-duque-hoyos","picture_url":"https:\/\/uploads.imcas.com\/users\/468689\/picture\/63f64808b0d80.jpg","phone":"+573 115 89255","specialty_category":"physician","country":{"id":50,"translations":[{"name":"Col\u00f4mbia","locale":"pt"},{"name":"Colombie","locale":"fr"},{"name":"\u54e5\u4f26\u6bd4\u4e9a","locale":"zh"},{"name":"\u041a\u043e\u043b\u0443\u043c\u0431\u0438\u044f","locale":"ru"},{"name":"Colombia","locale":"es"},{"name":"Colombia","locale":"en"}]},"specialty":{"id":23,"doctor":true,"translations":[{"name":"MD","locale":"en"},{"name":"M\u00e9decin","locale":"fr"},{"name":"\u533b\u5e08","locale":"zh"},{"name":"\u0414\u043e\u043a\u0442\u043e\u0440 \u043c\u0435\u0434\u0438\u0446\u0438\u043d\u044b","locale":"ru"},{"name":"M\u00e9dico","locale":"es"},{"name":"M\u00e9dico","locale":"pt"}]},"company":false,"diploma_status":"free_not_verified","specialty_verified":0,"user_specialty_id":23,"badges":[]},"translations":[{"content":"A wonderful space for learning, innovation and sharing a lot of knowledge. Thank you!","locale":"en"},{"content":"Un espacio maravilloso de aprendizaje, innovaci\u00f3n y mucho conocimiento junto, Gracias ","locale":"es"}]},{"id":2333,"sorting_order":0,"user":{"id":478832,"title":"Dr","first_name":"Ivonne Andrea","last_name":"BOHORQUEZ RODRIGUEZ","fullname":"Dr BOHORQUEZ RODRIGUEZ Ivonne Andrea","slug":"dr-ivonne-andrea-bohorquez-rodriguez","picture_url":"https:\/\/assets.imcas.com\/users\/default\/woman_doctor.png","phone":"","specialty_category":"physician","country":{"id":50,"translations":[{"name":"Col\u00f4mbia","locale":"pt"},{"name":"Colombie","locale":"fr"},{"name":"\u54e5\u4f26\u6bd4\u4e9a","locale":"zh"},{"name":"\u041a\u043e\u043b\u0443\u043c\u0431\u0438\u044f","locale":"ru"},{"name":"Colombia","locale":"es"},{"name":"Colombia","locale":"en"}]},"specialty":{"id":11,"doctor":true,"translations":[{"name":"Dermatologist","locale":"en"},{"name":"Dermatologue","locale":"fr"},{"name":"\u76ae\u80a4\u79d1\u533b\u5e08","locale":"zh"},{"name":"\u0414\u0435\u0440\u043c\u0430\u0442\u043e\u043b\u043e\u0433","locale":"ru"},{"name":"Dermat\u00f3logo","locale":"es"},{"name":"Dermatologista","locale":"pt"}]},"company":false,"diploma_status":"free_verified","specialty_verified":1,"user_specialty_id":11,"badges":[]},"translations":[{"content":"Pleasantly surprised with the quality of exhibitors and logistics as well as the compliance of schedules! I will not miss it again!","locale":"en"},{"content":"Gratamente sorprendida por la calidad de los expositores,  la log\u00edstica y el cumplimiento de los horarios! No me voy a volver a perder.","locale":"es"},{"content":"Fiquei agradavelmente surpreendida com a qualidade dos expositores e da log\u00edstica, bem como com o cumprimento dos hor\u00e1rios! N\u00e3o vou perder novamente!","locale":"pt"}]}],"first_page_url":"http:\/\/api.imcas.com\/v1\/feedbacks?&page=1","from":1,"last_page":100,"last_page_url":"http:\/\/api.imcas.com\/v1\/feedbacks?&page=100","next_page_url":"http:\/\/api.imcas.com\/v1\/feedbacks?&page=2","path":"http:\/\/api.imcas.com\/v1\/feedbacks?","per_page":10,"prev_page_url":null,"to":10,"total":994}